[gd_scene load_steps=2 format=2]

[ext_resource path="res://themes/rubik-medium12.theme" type="Theme" id=1]


[node name="minus" type="Button"]
margin_right = 20.0
margin_bottom = 23.0
rect_min_size = Vector2( 20, 0 )
focus_mode = 0
size_flags_horizontal = 0
theme = ExtResource( 1 )
enabled_focus_mode = 0
text = "-"
